{
  "workflow": {
    "unique_name": "definition_workflow_01WIZYMHZHWMX5D42oftaGVCfe0BpPf7Kmi",
    "name": "Matt Test 1 Sub",
    "title": "Matt Test 1 Sub",
    "type": "generic.workflow",
    "base_type": "workflow",
    "variables": null,
    "properties": {
      "atomic": {
        "is_atomic": false
      },
      "delete_workflow_instance": false,
      "display_name": "Matt Test 1 Sub",
      "runtime_user": {
        "target_default": true
      },
      "target": {
        "no_target": true
      }
    },
    "object_type": "definition_workflow",
    "actions": [
      {
        "unique_name": "definition_activity_01WIZYVUNAW5R5x7XlD8XcrioUFpqgaoTfX",
        "name": "Sleep",
        "title": "Sleep",
        "type": "core.sleep",
        "base_type": "activity",
        "properties": {
          "continue_on_failure": false,
          "display_name": "Sleep",
          "skip_execution": false,
          "sleep_interval": 1
        },
        "object_type": "definition_activity"
      },
      {
        "unique_name": "definition_activity_01WJ02RNBPUZN6GJ7foJtMcYU4cKof5NrFJ",
        "name": "MB Sleep Test1",
        "title": "MB Sleep Test1",
        "type": "workflow.sub_workflow",
        "base_type": "subworkflow",
        "properties": {
          "display_name": "MB Sleep Test1",
          "runtime_user": {
            "target_default": true
          },
          "target": {
            "no_target": true
          },
          "workflow_id": "definition_workflow_01WJ01TU7QCNQ01CJJR3B6DXiyixmmtrxmW",
          "workflow_name": "MB Sleep Test1"
        },
        "object_type": "definition_activity"
      }
    ],
    "categories": [
      "category_1BMfMXSnJMyt5Ihqi7rWJr5N8cf"
    ]
  },
  "dependent_workflows": [
    "definition_workflow_01WJ01TU7QCNQ01CJJR3B6DXiyixmmtrxmW"
  ]
}