{
  "workflow": {
    "unique_name": "definition_workflow_01VOVBBPKQKPW4zSRxrhcFwV3hCMjzmVFnZ",
    "name": "HA PARENT",
    "title": "HA PARENT",
    "type": "generic.workflow",
    "base_type": "workflow",
    "variables": null,
    "properties": {
      "atomic": {
        "is_atomic": false
      },
      "delete_workflow_instance": false,
      "display_name": "HA PARENT",
      "runtime_user": {
        "target_default": true
      },
      "target": {
        "target_type": "web-service.endpoint",
        "target_id": "definition_target_01UVQPJ8SPDL475GJKLN126YatGAWR9Rcv3",
        "execute_on_workflow_target": true
      }
    },
    "object_type": "definition_workflow",
    "actions": [
      {
        "unique_name": "definition_activity_01VOVBH9CCLDS4Wo81MpNi4zo1tc7xwr6S0",
        "name": "To Lower",
        "title": "To Lower",
        "type": "core.string2lower",
        "base_type": "activity",
        "properties": {
          "continue_on_failure": false,
          "display_name": "To Lower",
          "skip_execution": false,
          "source": "QWERTYUIKJHGFDS"
        },
        "object_type": "definition_activity"
      },
      {
        "unique_name": "definition_activity_01VOVD6DH9HQU4QBAFvkMY4CKZMBNSNV8Dd",
        "name": "HA TEST ATOMIC",
        "title": "HA TEST ATOMIC",
        "type": "workflow.atomic_workflow",
        "base_type": "subworkflow",
        "properties": {
          "continue_on_failure": false,
          "display_name": "HA TEST ATOMIC",
          "runtime_user": {
            "target_default": true
          },
          "skip_execution": false,
          "target": {
            "override_workflow_target": true,
            "target_id": "definition_target_01EOZMYH25RSG1rDfjUIjQwHEPioIElydk9",
            "target_type": "web-service.endpoint"
          },
          "workflow_id": "definition_workflow_01VOV6YFND2FW75oSnFkBvVoQNyDxXSu44t",
          "workflow_name": "HA TEST ATOMIC"
        },
        "object_type": "definition_activity"
      },
      {
        "unique_name": "definition_activity_01VV9FRO67V555lFVHfMvfXcUKZpsEkrGRE",
        "name": "HA TEST ATOMIC",
        "title": "HA TEST ATOMIC",
        "type": "workflow.atomic_workflow",
        "base_type": "subworkflow",
        "properties": {
          "continue_on_failure": false,
          "display_name": "HA TEST ATOMIC",
          "runtime_user": {
            "target_default": true
          },
          "skip_execution": false,
          "target": {
            "override_workflow_target": true,
            "target_id": "definition_target_01EOZMYH25RSG1rDfjUIjQwHEPioIElydk9",
            "target_type": "web-service.endpoint"
          },
          "workflow_id": "definition_workflow_01VOV6YFND2FW75oSnFkBvVoQNyDxXSu44t",
          "workflow_name": "HA TEST ATOMIC"
        },
        "object_type": "definition_activity"
      },
      {
        "unique_name": "definition_activity_01VOVHXEKC1PX4119VZfeUj3NxstNpGd4Or",
        "name": "HTTP Request",
        "title": "HTTP Request",
        "type": "web-service.http_request",
        "base_type": "activity",
        "properties": {
          "action_timeout": 180,
          "allow_auto_redirect": true,
          "continue_on_error_status_code": false,
          "continue_on_failure": false,
          "display_name": "HTTP Request",
          "method": "GET",
          "runtime_user": {
            "target_default": true
          },
          "skip_execution": false,
          "target": {
            "override_workflow_target": true,
            "target_id": "definition_target_01VOHDYNE4BFR20rqoP6aJcvi89PgAdBsPH"
          }
        },
        "object_type": "definition_activity"
      }
    ],
    "categories": [
      "category_1BMfMXSnJMyt5Ihqi7rWJr5N8cf"
    ]
  },
  "targets": {
    "definition_target_01UVQPJ8SPDL475GJKLN126YatGAWR9Rcv3": {
      "unique_name": "definition_target_01UVQPJ8SPDL475GJKLN126YatGAWR9Rcv3",
      "name": "harry http dummy",
      "title": "harry http dummy",
      "type": "web-service.endpoint",
      "base_type": "target",
      "object_type": "definition_target",
      "properties": {
        "default_runtime_user_id": "definition_runtime_user_01UVQG2GRDNMO28BCHnPrphdMnENJTM1HMA",
        "disable_certificate_validation": false,
        "display_name": "harry http dummy",
        "host": "gmail.com",
        "ignore_proxy": false,
        "no_runtime_user": false,
        "protocol": "https"
      }
    },
    "definition_target_01VOHDYNE4BFR20rqoP6aJcvi89PgAdBsPH": {
      "unique_name": "definition_target_01VOHDYNE4BFR20rqoP6aJcvi89PgAdBsPH",
      "name": "ha http test ",
      "title": "ha http test ",
      "type": "web-service.endpoint",
      "base_type": "target",
      "object_type": "definition_target",
      "properties": {
        "default_runtime_user_id": "definition_runtime_user_01VH1DY8O568G3QPo6t0HxtInr7TDDZQo9N",
        "disable_certificate_validation": false,
        "display_name": "ha http test ",
        "host": "www.google.com",
        "ignore_proxy": false,
        "no_runtime_user": false,
        "protocol": "https"
      }
    }
  },
  "runtime_users": {
    "definition_runtime_user_01UVQG2GRDNMO28BCHnPrphdMnENJTM1HMA": {
      "unique_name": "definition_runtime_user_01UVQG2GRDNMO28BCHnPrphdMnENJTM1HMA",
      "name": "HTTP basic dummy test",
      "title": "HTTP basic dummy test",
      "type": "runtime_user.web-service_basic_credentials",
      "base_type": "runtime_user",
      "object_type": "definition_runtime_user",
      "properties": {
        "auth_option": "*****",
        "basic_password": "*****",
        "basic_username": "*****",
        "display_name": "HTTP basic dummy test"
      }
    },
    "definition_runtime_user_01VH1DY8O568G3QPo6t0HxtInr7TDDZQo9N": {
      "unique_name": "definition_runtime_user_01VH1DY8O568G3QPo6t0HxtInr7TDDZQo9N",
      "name": "HA TEST CRED UNIQ",
      "title": "HA TEST CRED UNIQ",
      "type": "runtime_user.web-service_basic_credentials",
      "base_type": "runtime_user",
      "object_type": "definition_runtime_user",
      "properties": {
        "auth_option": "*****",
        "basic_password": "*****",
        "basic_username": "*****",
        "display_name": "HA TEST CRED UNIQ"
      }
    }
  },
  "atomic_workflows": [
    "definition_workflow_01VOV6YFND2FW75oSnFkBvVoQNyDxXSu44t"
  ],
  "dependent_workflows": [
    "definition_workflow_01VOV6YFND2FW75oSnFkBvVoQNyDxXSu44t"
  ]
}