{
  "workflow": {
    "unique_name": "definition_workflow_027R3FSZDJ9C15FI9XsQ3TY2mbg0KUk3eJa",
    "name": "CA_import/export",
    "title": "CA_import/export",
    "type": "generic.workflow",
    "base_type": "workflow",
    "variables": [
      {
        "schema_id": "datatype.string",
        "properties": {
          "value": "",
          "scope": "output",
          "name": "Condition Block 1",
          "type": "datatype.string",
          "is_required": false,
          "display_on_wizard": false,
          "is_invisible": false
        },
        "unique_name": "variable_workflow_027R3FSZQB6AS4XBYVztsyy1G03wSV5jOop",
        "object_type": "variable_workflow"
      },
      {
        "schema_id": "datatype.string",
        "properties": {
          "value": "Authorization",
          "scope": "local",
          "name": "Authorization",
          "type": "datatype.string",
          "is_required": false,
          "display_on_wizard": false,
          "is_invisible": false
        },
        "unique_name": "variable_workflow_027R3FSZQBLMM6ZbMnKj9pLbFZbUKq0ZwNY",
        "object_type": "variable_workflow"
      },
      {
        "schema_id": "datatype.string",
        "properties": {
          "value": "",
          "scope": "output",
          "name": "All Action True/False",
          "type": "datatype.string",
          "is_required": false,
          "display_on_wizard": false,
          "is_invisible": false
        },
        "unique_name": "variable_workflow_027R3FSZQBDWP2xE1juKr56EIok7IkkhNBf",
        "object_type": "variable_workflow"
      },
      {
        "schema_id": "datatype.string",
        "properties": {
          "value": "",
          "scope": "output",
          "name": "Email Template",
          "type": "datatype.string",
          "is_required": false,
          "display_on_wizard": false,
          "is_invisible": false
        },
        "unique_name": "variable_workflow_027R3FSZQAPA86sTJtghKqOEWPFJmGcjn1u",
        "object_type": "variable_workflow"
      },
      {
        "schema_id": "datatype.secure_string",
        "properties": {
          "value": "",
          "scope": "input",
          "name": "Provide BitBucket Token Password for \"longhornproj1\" Account",
          "type": "datatype.secure_string",
          "description": "Provide Token password for BitBucket to import Workflow from bitbucket",
          "is_required": true,
          "display_on_wizard": false,
          "is_invisible": false
        },
        "unique_name": "variable_workflow_027R3FSZQAEK60isIaXMw58E9tKCsnScL4N",
        "object_type": "variable_workflow"
      },
      {
        "schema_id": "datatype.string",
        "properties": {
          "value": "Bearer ",
          "scope": "input",
          "name": "Provide Token include Bearer",
          "type": "datatype.string",
          "is_required": true,
          "display_on_wizard": false,
          "is_invisible": false
        },
        "unique_name": "variable_workflow_027R3FSZQAYY60a4mP6rSXFyvnmZobFsXeb",
        "object_type": "variable_workflow"
      }
    ],
    "properties": {
      "atomic": {
        "is_atomic": false
      },
      "delete_workflow_instance": false,
      "description": "Create BitBucket account key\nCraete BIT BucketTarget\nImport worklfow\nValidates Import WorkflowStatus\nExecute Workflow\nverfiy WF Instance Run status\nExport Workflow\nverfiy Exported Workflow status (Export success/Failed)\nDetach BIT Bucket Target from Workflow\nDelete BIT Bucket Target\nDelete BIT Bucket Key\nDelete WF Instance\nDelete Workflow",
      "display_name": "CA_import/export",
      "runtime_user": {
        "override_target_runtime_user": false,
        "specify_on_workflow_start": false,
        "target_default": true
      },
      "target": {
        "target_type": "web-service.endpoint",
        "specify_on_workflow_start": true
      }
    },
    "object_type": "definition_workflow",
    "actions": [
      {
        "unique_name": "definition_activity_027R3FT2OREBD7AYzefoA8DJTCWTawUgKpT",
        "name": "Group",
        "title": "Ctreate BitBucket key and Target",
        "type": "logic.group",
        "base_type": "activity",
        "properties": {
          "continue_on_failure": true,
          "display_name": "Ctreate BitBucket key and Target",
          "skip_execution": false
        },
        "object_type": "definition_activity",
        "actions": [
          {
            "unique_name": "definition_activity_027R3FT3U5F8Y4ejdMDGUbRQhgfuc0aM7Sn",
            "name": "HTTP Request",
            "title": "Create BiBucket Account KEY",
            "type": "web-service.http_request",
            "base_type": "activity",
            "properties": {
              "action_timeout": 180,
              "allow_auto_redirect": true,
              "body": "{\n  \"type\": \"runtime_user.git_token_credentials\",\n  \"base_type\": \"runtime_user\",\n  \"name\": \"Automation- CA BB Token test\",\n  \"title\": \"Automation- CA BB Token Test\",\n  \"properties\": {\n    \"display_name\": \"CA BB Token\",\n    \"username\": \"longhornproj1\",\n    \"password\": \"$workflow.definition_workflow_027R3FSZDJ9C15FI9XsQ3TY2mbg0KUk3eJa.input.variable_workflow_027R3FSZQAEK60isIaXMw58E9tKCsnScL4N$\"\n  }\n}",
              "continue_on_error_status_code": false,
              "continue_on_failure": true,
              "custom_headers": [
                {
                  "name": "$workflow.definition_workflow_027R3FSZDJ9C15FI9XsQ3TY2mbg0KUk3eJa.local.variable_workflow_027R3FSZQBLMM6ZbMnKj9pLbFZbUKq0ZwNY$",
                  "value": "$workflow.definition_workflow_027R3FSZDJ9C15FI9XsQ3TY2mbg0KUk3eJa.input.variable_workflow_027R3FSZQAYY60a4mP6rSXFyvnmZobFsXeb$"
                }
              ],
              "display_name": "Create BiBucket Account KEY",
              "method": "POST",
              "relative_url": "be-console/api/v1/runtime_users",
              "runtime_user": {
                "override_target_runtime_user": false,
                "target_default": true
              },
              "skip_execution": false,
              "target": {
                "override_workflow_target": false,
                "override_workflow_target_group_criteria": false,
                "use_workflow_target": true,
                "use_workflow_target_group": false
              }
            },
            "object_type": "definition_activity"
          },
          {
            "unique_name": "definition_activity_027R3FT4GX8SI4aKVTOMhG0Xmb2e92Dqb8F",
            "name": "JSONPath Query",
            "title": "Extarct BitBucket Runtime User  ID",
            "type": "corejava.jsonpathquery",
            "base_type": "activity",
            "properties": {
              "action_timeout": 180,
              "continue_on_failure": true,
              "display_name": "Extarct BitBucket Runtime User  ID",
              "input_json": "$activity.definition_activity_027R3FT3U5F8Y4ejdMDGUbRQhgfuc0aM7Sn.output.response_body$",
              "jsonpath_queries": [
                {
                  "jsonpath_query": "$..id",
                  "jsonpath_query_name": "GIT Accountkey ID",
                  "jsonpath_query_type": "secure_string"
                },
                {
                  "jsonpath_query": "$.status.state",
                  "jsonpath_query_name": "Accountkey Status",
                  "jsonpath_query_type": "string"
                }
              ],
              "skip_execution": false
            },
            "object_type": "definition_activity"
          },
          {
            "unique_name": "definition_activity_027R3FT5E0Z5B6v0DDYreEOY312pB0kFoXt",
            "name": "HTTP Request",
            "title": "Create BitBucket Target",
            "type": "web-service.http_request",
            "base_type": "activity",
            "properties": {
              "action_timeout": 180,
              "allow_auto_redirect": true,
              "body": "{\n  \"name\": \"CA BitBucket test Import/Export\",\n  \"title\": \"CA BitBucket test Import/Export\",\n  \"properties\": {\n    \"no_runtime_user\": false,\n    \"repo_type\": \"bitbucket\",\n    \"branch\": \"master\",\n    \"display_name\": \"CA BitBucket test Import/Export\",\n    \"default_runtime_user_id\": \"$activity.definition_activity_027R3FT4GX8SI4aKVTOMhG0Xmb2e92Dqb8F.output.jsonpath_queries.GIT Accountkey ID$\",\n    \"protocol\": \"https\",\n    \"repo\": \"bitbucket.org/api/2.0/repositories/longhornproj1/ca-test-import-export\",\n    \"repo_version\": \"2\"\n  },\n  \"type\": \"git.repository\",\n  \"base_type\": \"target\"\n}",
              "continue_on_error_status_code": false,
              "continue_on_failure": true,
              "custom_headers": [
                {
                  "name": "$workflow.definition_workflow_027R3FSZDJ9C15FI9XsQ3TY2mbg0KUk3eJa.local.variable_workflow_027R3FSZQBLMM6ZbMnKj9pLbFZbUKq0ZwNY$",
                  "value": "$workflow.definition_workflow_027R3FSZDJ9C15FI9XsQ3TY2mbg0KUk3eJa.input.variable_workflow_027R3FSZQAYY60a4mP6rSXFyvnmZobFsXeb$"
                }
              ],
              "display_name": "Create BitBucket Target",
              "method": "POST",
              "relative_url": "be-console/api/v1/targets",
              "runtime_user": {
                "override_target_runtime_user": false,
                "target_default": true
              },
              "skip_execution": false,
              "target": {
                "override_workflow_target": false,
                "override_workflow_target_group_criteria": false,
                "use_workflow_target": true,
                "use_workflow_target_group": false
              }
            },
            "object_type": "definition_activity"
          },
          {
            "unique_name": "definition_activity_027R3FT6ACULV0KY03Vt37XQExZ5RZiz0yO",
            "name": "JSONPath Query",
            "title": "Extracting BB Target ID",
            "type": "corejava.jsonpathquery",
            "base_type": "activity",
            "properties": {
              "action_timeout": 180,
              "continue_on_failure": true,
              "display_name": "Extracting BB Target ID",
              "input_json": "$activity.definition_activity_027R3FT5E0Z5B6v0DDYreEOY312pB0kFoXt.output.response_body$",
              "jsonpath_queries": [
                {
                  "jsonpath_query": "$..id",
                  "jsonpath_query_name": "GIT Target ID",
                  "jsonpath_query_type": "string"
                },
                {
                  "jsonpath_query": "$.status.state",
                  "jsonpath_query_name": "Git Target Status",
                  "jsonpath_query_type": "string"
                }
              ],
              "skip_execution": false
            },
            "object_type": "definition_activity"
          }
        ]
      },
      {
        "unique_name": "definition_activity_027R3FT72X6H72hYltBfQf8q3UanPWOLSrC",
        "name": "Group",
        "title": "Import Workflow",
        "type": "logic.group",
        "base_type": "activity",
        "properties": {
          "continue_on_failure": true,
          "display_name": "Import Workflow",
          "skip_execution": false
        },
        "object_type": "definition_activity",
        "actions": [
          {
            "unique_name": "definition_activity_027R3FT888FER2lcQ72pUZo4Lp8VuEtiKVb",
            "name": "HTTP Request",
            "title": "Import Workflow",
            "type": "web-service.http_request",
            "base_type": "activity",
            "properties": {
              "action_timeout": 180,
              "allow_auto_redirect": true,
              "body": "{\n  \"commit_hash\": \"d507abd28acdbb41bdb14b435689dba712b59abc\",\n  \"target_id\": \"$activity.definition_activity_027R3FT6ACULV0KY03Vt37XQExZ5RZiz0yO.output.jsonpath_queries.GIT Target ID$\",\n  \"runtime_users\": [],\n  \"runtime_users_skip_list\": [],\n  \"variables\": [],\n  \"file_name\": \"Test-ImportTo-BB-LogicBlocksWorkflow\"\n}",
              "continue_on_error_status_code": false,
              "continue_on_failure": true,
              "custom_headers": [
                {
                  "name": "$workflow.definition_workflow_027R3FSZDJ9C15FI9XsQ3TY2mbg0KUk3eJa.local.variable_workflow_027R3FSZQBLMM6ZbMnKj9pLbFZbUKq0ZwNY$",
                  "value": "$workflow.definition_workflow_027R3FSZDJ9C15FI9XsQ3TY2mbg0KUk3eJa.input.variable_workflow_027R3FSZQAYY60a4mP6rSXFyvnmZobFsXeb$"
                }
              ],
              "display_name": "Import Workflow",
              "method": "POST",
              "relative_url": "be-importexport/api/v1/workflows/import?create_new=true\u0026from=git\u0026overwrite=false\u0026workflow_unique_name=definition_workflow_01KDF7Q7UYBF56nybkDZmQE91vijRqN1IQ9",
              "runtime_user": {
                "override_target_runtime_user": false,
                "target_default": true
              },
              "skip_execution": false,
              "target": {
                "override_workflow_target": false,
                "override_workflow_target_group_criteria": false,
                "use_workflow_target": true,
                "use_workflow_target_group": false
              }
            },
            "object_type": "definition_activity"
          },
          {
            "unique_name": "definition_activity_027R3FT92VW2Y1Ixlx6Pm2lNN9fEnW6eudL",
            "name": "Sleep",
            "title": "Sleep 65 Seconds",
            "type": "core.sleep",
            "base_type": "activity",
            "properties": {
              "continue_on_failure": true,
              "display_name": "Sleep 65 Seconds",
              "skip_execution": false,
              "sleep_interval": 65
            },
            "object_type": "definition_activity"
          },
          {
            "unique_name": "definition_activity_027R3FT9NOE3A3CoqiS3y4tjfqd9t5MpmQB",
            "name": "JSONPath Query",
            "title": "Extract Imported workflow ID",
            "type": "corejava.jsonpathquery",
            "base_type": "activity",
            "properties": {
              "action_timeout": 180,
              "continue_on_failure": true,
              "display_name": "Extract Imported workflow ID",
              "input_json": "$activity.definition_activity_027R3FT888FER2lcQ72pUZo4Lp8VuEtiKVb.output.response_body$",
              "jsonpath_queries": [
                {
                  "jsonpath_query": "$..id",
                  "jsonpath_query_name": "Workflow ID",
                  "jsonpath_query_type": "string"
                },
                {
                  "jsonpath_query": "$.status.state",
                  "jsonpath_query_name": "import status",
                  "jsonpath_query_type": "string"
                }
              ],
              "skip_execution": false
            },
            "object_type": "definition_activity"
          },
          {
            "unique_name": "definition_activity_027R3FTAM70Z076DcIdsrZRuYgnJKy8oj54",
            "name": "HTTP Request",
            "title": "GET WF To verify import Status",
            "type": "web-service.http_request",
            "base_type": "activity",
            "properties": {
              "action_timeout": 180,
              "allow_auto_redirect": true,
              "continue_on_error_status_code": false,
              "continue_on_failure": true,
              "custom_headers": [
                {
                  "name": "$workflow.definition_workflow_027R3FSZDJ9C15FI9XsQ3TY2mbg0KUk3eJa.local.variable_workflow_027R3FSZQBLMM6ZbMnKj9pLbFZbUKq0ZwNY$",
                  "value": "$workflow.definition_workflow_027R3FSZDJ9C15FI9XsQ3TY2mbg0KUk3eJa.input.variable_workflow_027R3FSZQAYY60a4mP6rSXFyvnmZobFsXeb$"
                }
              ],
              "display_name": "GET WF To verify import Status",
              "method": "GET",
              "relative_url": "be-console/api/v1/workflows/$activity.definition_activity_027R3FT9NOE3A3CoqiS3y4tjfqd9t5MpmQB.output.jsonpath_queries.Workflow ID$",
              "runtime_user": {
                "override_target_runtime_user": false,
                "target_default": true
              },
              "skip_execution": false,
              "target": {
                "override_workflow_target": false,
                "override_workflow_target_group_criteria": false,
                "use_workflow_target": true,
                "use_workflow_target_group": false
              }
            },
            "object_type": "definition_activity"
          },
          {
            "unique_name": "definition_activity_027R3FTBHPGQ92eOD82kZ165EO5IQPczpZh",
            "name": "JSONPath Query",
            "title": "Extract Imported Status",
            "type": "corejava.jsonpathquery",
            "base_type": "activity",
            "properties": {
              "action_timeout": 180,
              "continue_on_failure": true,
              "display_name": "Extract Imported Status",
              "input_json": "$activity.definition_activity_027R3FTAM70Z076DcIdsrZRuYgnJKy8oj54.output.response_body$",
              "jsonpath_queries": [
                {
                  "jsonpath_query": "$.status.state",
                  "jsonpath_query_name": "Imported Status",
                  "jsonpath_query_type": "string"
                }
              ],
              "skip_execution": false
            },
            "object_type": "definition_activity"
          },
          {
            "unique_name": "definition_activity_027R3FTCDQHC075ZThQRFTWlY0SDPcB0c43",
            "name": "HTTP Request",
            "title": "Validate Workflow",
            "type": "web-service.http_request",
            "base_type": "activity",
            "properties": {
              "action_timeout": 180,
              "allow_auto_redirect": true,
              "continue_on_error_status_code": false,
              "continue_on_failure": true,
              "custom_headers": [
                {
                  "name": "$workflow.definition_workflow_027R3FSZDJ9C15FI9XsQ3TY2mbg0KUk3eJa.local.variable_workflow_027R3FSZQBLMM6ZbMnKj9pLbFZbUKq0ZwNY$",
                  "value": "$workflow.definition_workflow_027R3FSZDJ9C15FI9XsQ3TY2mbg0KUk3eJa.input.variable_workflow_027R3FSZQAYY60a4mP6rSXFyvnmZobFsXeb$"
                }
              ],
              "display_name": "Validate Workflow",
              "method": "POST",
              "relative_url": "be-console/api/v1/workflows/$activity.definition_activity_027R3FT9NOE3A3CoqiS3y4tjfqd9t5MpmQB.output.jsonpath_queries.Workflow ID$/validate",
              "runtime_user": {
                "override_target_runtime_user": false,
                "target_default": true
              },
              "skip_execution": false,
              "target": {
                "override_workflow_target": false,
                "override_workflow_target_group_criteria": false,
                "use_workflow_target": true,
                "use_workflow_target_group": false
              }
            },
            "object_type": "definition_activity"
          },
          {
            "unique_name": "definition_activity_027R3FTDDM89941g3YTIZGSFasSEDCVweev",
            "name": "HTTP Request",
            "title": "Execute Workflow",
            "type": "web-service.http_request",
            "base_type": "activity",
            "properties": {
              "action_timeout": 180,
              "allow_auto_redirect": true,
              "continue_on_error_status_code": false,
              "continue_on_failure": true,
              "custom_headers": [
                {
                  "name": "$workflow.definition_workflow_027R3FSZDJ9C15FI9XsQ3TY2mbg0KUk3eJa.local.variable_workflow_027R3FSZQBLMM6ZbMnKj9pLbFZbUKq0ZwNY$",
                  "value": "$workflow.definition_workflow_027R3FSZDJ9C15FI9XsQ3TY2mbg0KUk3eJa.input.variable_workflow_027R3FSZQAYY60a4mP6rSXFyvnmZobFsXeb$"
                }
              ],
              "display_name": "Execute Workflow",
              "method": "POST",
              "relative_url": "be-console/api/v1.1/workflows/ui/start?workflow_id=$activity.definition_activity_027R3FT9NOE3A3CoqiS3y4tjfqd9t5MpmQB.output.jsonpath_queries.Workflow ID$",
              "runtime_user": {
                "override_target_runtime_user": false,
                "target_default": true
              },
              "skip_execution": false,
              "target": {
                "override_workflow_target": false,
                "override_workflow_target_group_criteria": false,
                "use_workflow_target": true,
                "use_workflow_target_group": false
              }
            },
            "object_type": "definition_activity"
          },
          {
            "unique_name": "definition_activity_027R3FTEKYDK47ipgKV5AdOlMczikg4gwbw",
            "name": "JSONPath Query",
            "title": "Extract instance ID",
            "type": "corejava.jsonpathquery",
            "base_type": "activity",
            "properties": {
              "action_timeout": 180,
              "continue_on_failure": true,
              "display_name": "Extract instance ID",
              "input_json": "$activity.definition_activity_027R3FTDDM89941g3YTIZGSFasSEDCVweev.output.response_body$",
              "jsonpath_queries": [
                {
                  "jsonpath_query": "$..id",
                  "jsonpath_query_name": "Instance ID",
                  "jsonpath_query_type": "string"
                }
              ],
              "skip_execution": false
            },
            "object_type": "definition_activity"
          },
          {
            "unique_name": "definition_activity_027R3FTFFSFRR6wpHk5L1DG8wYts9RZwKUt",
            "name": "Sleep",
            "title": "Sleep 15 Seconds",
            "type": "core.sleep",
            "base_type": "activity",
            "properties": {
              "continue_on_failure": true,
              "display_name": "Sleep 15 Seconds",
              "skip_execution": false,
              "sleep_interval": 15
            },
            "object_type": "definition_activity"
          },
          {
            "unique_name": "definition_activity_027R3FTG26WYY6csmF0P9P6L47Ek4QNS3AB",
            "name": "HTTP Request",
            "title": "Get Instance Info in detail",
            "type": "web-service.http_request",
            "base_type": "activity",
            "properties": {
              "action_timeout": 180,
              "allow_auto_redirect": true,
              "continue_on_error_status_code": false,
              "continue_on_failure": true,
              "custom_headers": [
                {
                  "name": "$workflow.definition_workflow_027R3FSZDJ9C15FI9XsQ3TY2mbg0KUk3eJa.local.variable_workflow_027R3FSZQBLMM6ZbMnKj9pLbFZbUKq0ZwNY$",
                  "value": "$workflow.definition_workflow_027R3FSZDJ9C15FI9XsQ3TY2mbg0KUk3eJa.input.variable_workflow_027R3FSZQAYY60a4mP6rSXFyvnmZobFsXeb$"
                }
              ],
              "display_name": "Get Instance Info in detail",
              "method": "GET",
              "relative_url": "be-console/api/v1/instances/$activity.definition_activity_027R3FTEKYDK47ipgKV5AdOlMczikg4gwbw.output.jsonpath_queries.Instance ID$?detailed=true",
              "runtime_user": {
                "override_target_runtime_user": false,
                "target_default": true
              },
              "skip_execution": false,
              "target": {
                "override_workflow_target": false,
                "override_workflow_target_group_criteria": false,
                "use_workflow_target": true,
                "use_workflow_target_group": false
              }
            },
            "object_type": "definition_activity"
          },
          {
            "unique_name": "definition_activity_027R3FTGYN33R08djstO5LTQnluW5qjGHwT",
            "name": "JSONPath Query",
            "title": "Extracting Instance status ",
            "type": "corejava.jsonpathquery",
            "base_type": "activity",
            "properties": {
              "action_timeout": 180,
              "continue_on_failure": true,
              "display_name": "Extracting Instance status ",
              "input_json": "$activity.definition_activity_027R3FTG26WYY6csmF0P9P6L47Ek4QNS3AB.output.response_body$",
              "jsonpath_queries": [
                {
                  "jsonpath_query": "$.status.state",
                  "jsonpath_query_name": "Workflow Instance Status",
                  "jsonpath_query_type": "string"
                }
              ],
              "skip_execution": false
            },
            "object_type": "definition_activity"
          },
          {
            "unique_name": "definition_activity_027R3FTHTX96H3usCvbD0BbykumVjqURcKF",
            "name": "Condition Block",
            "title": "All Actions Pass/Fail",
            "type": "logic.if_else",
            "base_type": "activity",
            "properties": {
              "continue_on_failure": true,
              "display_name": "All Actions Pass/Fail",
              "skip_execution": false
            },
            "object_type": "definition_activity",
            "blocks": [
              {
                "unique_name": "definition_activity_027R3FTJ2B82973ZGEEHOFaZjmyBkCsUWzg",
                "name": "Condition Branch",
                "title": "true == 200",
                "type": "logic.condition_block",
                "base_type": "activity",
                "properties": {
                  "condition": {
                    "left_operand": {
                      "left_operand": {
                        "left_operand": {
                          "left_operand": {
                            "left_operand": {
                              "left_operand": {
                                "left_operand": "$activity.definition_activity_027R3FT4GX8SI4aKVTOMhG0Xmb2e92Dqb8F.output.jsonpath_queries.Accountkey Status$",
                                "operator": "eq",
                                "right_operand": "created"
                              },
                              "operator": "and",
                              "right_operand": {
                                "left_operand": "$activity.definition_activity_027R3FT6ACULV0KY03Vt37XQExZ5RZiz0yO.output.jsonpath_queries.Git Target Status$",
                                "operator": "mregex",
                                "right_operand": "(?:valid|created)"
                              }
                            },
                            "operator": "and",
                            "right_operand": {
                              "left_operand": "$activity.definition_activity_027R3FT9NOE3A3CoqiS3y4tjfqd9t5MpmQB.output.jsonpath_queries.import status$",
                              "operator": "eq",
                              "right_operand": "import_in_progress"
                            }
                          },
                          "operator": "and",
                          "right_operand": {
                            "left_operand": "$activity.definition_activity_027R3FTBHPGQ92eOD82kZ165EO5IQPczpZh.output.jsonpath_queries.Imported Status$",
                            "operator": "eq",
                            "right_operand": "import_completed"
                          }
                        },
                        "operator": "and",
                        "right_operand": {
                          "left_operand": "$activity.definition_activity_027R3FTCDQHC075ZThQRFTWlY0SDPcB0c43.output.status_code$",
                          "operator": "eq",
                          "right_operand": 200
                        }
                      },
                      "operator": "and",
                      "right_operand": {
                        "left_operand": "$activity.definition_activity_027R3FTDDM89941g3YTIZGSFasSEDCVweev.output.status_code$",
                        "operator": "eq",
                        "right_operand": 200
                      }
                    },
                    "operator": "and",
                    "right_operand": {
                      "left_operand": "$activity.definition_activity_027R3FTGYN33R08djstO5LTQnluW5qjGHwT.output.jsonpath_queries.Workflow Instance Status$",
                      "operator": "eq",
                      "right_operand": "success"
                    }
                  },
                  "continue_on_failure": true,
                  "display_name": "true == 200",
                  "skip_execution": false
                },
                "object_type": "definition_activity",
                "actions": [
                  {
                    "unique_name": "definition_activity_027R3FTKQ9V7Y4WPrru87ZqmPkOHMafluYH",
                    "name": "Set Variables",
                    "title": "true == 200",
                    "type": "core.set_multiple_variables",
                    "base_type": "activity",
                    "properties": {
                      "continue_on_failure": true,
                      "display_name": "true == 200",
                      "skip_execution": false,
                      "variables_to_update": [
                        {
                          "variable_to_update": "$workflow.definition_workflow_027R3FSZDJ9C15FI9XsQ3TY2mbg0KUk3eJa.output.variable_workflow_027R3FSZQB6AS4XBYVztsyy1G03wSV5jOop$",
                          "variable_value_new": "true"
                        }
                      ]
                    },
                    "object_type": "definition_activity"
                  }
                ]
              },
              {
                "unique_name": "definition_activity_027R3FTLXGMAK2wyerhDcjOWqpddjyyOSpp",
                "name": "Condition Branch",
                "title": "Fail !== 200",
                "type": "logic.condition_block",
                "base_type": "activity",
                "properties": {
                  "condition": {
                    "left_operand": {
                      "left_operand": {
                        "left_operand": {
                          "left_operand": {
                            "left_operand": {
                              "left_operand": {
                                "left_operand": "$activity.definition_activity_027R3FT4GX8SI4aKVTOMhG0Xmb2e92Dqb8F.output.jsonpath_queries.Accountkey Status$",
                                "operator": "ne",
                                "right_operand": "created"
                              },
                              "operator": "or",
                              "right_operand": {
                                "left_operand": "$activity.definition_activity_027R3FT6ACULV0KY03Vt37XQExZ5RZiz0yO.output.jsonpath_queries.Git Target Status$",
                                "operator": "ne",
                                "right_operand": "valid"
                              }
                            },
                            "operator": "or",
                            "right_operand": {
                              "left_operand": "$activity.definition_activity_027R3FT9NOE3A3CoqiS3y4tjfqd9t5MpmQB.output.jsonpath_queries.import status$",
                              "operator": "ne",
                              "right_operand": "import_in_progress"
                            }
                          },
                          "operator": "or",
                          "right_operand": {
                            "left_operand": "$activity.definition_activity_027R3FTBHPGQ92eOD82kZ165EO5IQPczpZh.output.jsonpath_queries.Imported Status$",
                            "operator": "ne",
                            "right_operand": "import_completed"
                          }
                        },
                        "operator": "or",
                        "right_operand": {
                          "left_operand": "$activity.definition_activity_027R3FTCDQHC075ZThQRFTWlY0SDPcB0c43.output.status_code$",
                          "operator": "ne",
                          "right_operand": 200
                        }
                      },
                      "operator": "or",
                      "right_operand": {
                        "left_operand": "$activity.definition_activity_027R3FTDDM89941g3YTIZGSFasSEDCVweev.output.status_code$",
                        "operator": "ne",
                        "right_operand": 200
                      }
                    },
                    "operator": "or",
                    "right_operand": {
                      "left_operand": "$activity.definition_activity_027R3FTGYN33R08djstO5LTQnluW5qjGHwT.output.jsonpath_queries.Workflow Instance Status$",
                      "operator": "ne",
                      "right_operand": "success"
                    }
                  },
                  "continue_on_failure": true,
                  "display_name": "Fail !== 200",
                  "skip_execution": false
                },
                "object_type": "definition_activity",
                "actions": [
                  {
                    "unique_name": "definition_activity_027R3FTNIP4371OfStkIzSg8gME0D0orFe9",
                    "name": "Set Variables",
                    "title": "true == 200",
                    "type": "core.set_multiple_variables",
                    "base_type": "activity",
                    "properties": {
                      "continue_on_failure": true,
                      "display_name": "true == 200",
                      "skip_execution": false,
                      "variables_to_update": [
                        {
                          "variable_to_update": "$workflow.definition_workflow_027R3FSZDJ9C15FI9XsQ3TY2mbg0KUk3eJa.output.variable_workflow_027R3FSZQB6AS4XBYVztsyy1G03wSV5jOop$",
                          "variable_value_new": "false"
                        }
                      ]
                    },
                    "object_type": "definition_activity"
                  }
                ]
              }
            ]
          }
        ]
      },
      {
        "unique_name": "definition_activity_027R3FTO6V3E33Jp0WDzXPgpSfrQ3DqUNpa",
        "name": "Group",
        "title": "Export Workflow",
        "type": "logic.group",
        "base_type": "activity",
        "properties": {
          "continue_on_failure": true,
          "display_name": "Export Workflow",
          "skip_execution": false
        },
        "object_type": "definition_activity",
        "actions": [
          {
            "unique_name": "definition_activity_027R3FTPDR8N636c0wsv3hcBJLvRsw0KQt2",
            "name": "HTTP Request",
            "title": "Export Workflow",
            "type": "web-service.http_request",
            "base_type": "activity",
            "properties": {
              "action_timeout": 180,
              "allow_auto_redirect": true,
              "body": "{\n  \"target_id\": \"$activity.definition_activity_027R3FT6ACULV0KY03Vt37XQExZ5RZiz0yO.output.jsonpath_queries.GIT Target ID$\",\n  \"commit_message\": \"Commit1 : test Export Workflow have All logic Blocks\",\n  \"file_name\": \"Test-Export-to-BB-LogicBlocksWorkflow\"\n}",
              "continue_on_error_status_code": false,
              "continue_on_failure": true,
              "custom_headers": [
                {
                  "name": "$workflow.definition_workflow_027R3FSZDJ9C15FI9XsQ3TY2mbg0KUk3eJa.local.variable_workflow_027R3FSZQBLMM6ZbMnKj9pLbFZbUKq0ZwNY$",
                  "value": "$workflow.definition_workflow_027R3FSZDJ9C15FI9XsQ3TY2mbg0KUk3eJa.input.variable_workflow_027R3FSZQAYY60a4mP6rSXFyvnmZobFsXeb$"
                }
              ],
              "display_name": "Export Workflow",
              "method": "POST",
              "relative_url": "be-importexport/api/v1/workflows/export?force=false\u0026to=git\u0026workflow_id=$activity.definition_activity_027R3FT9NOE3A3CoqiS3y4tjfqd9t5MpmQB.output.jsonpath_queries.Workflow ID$",
              "runtime_user": {
                "override_target_runtime_user": false,
                "target_default": true
              },
              "skip_execution": false,
              "target": {
                "override_workflow_target": false,
                "override_workflow_target_group_criteria": false,
                "use_workflow_target": true,
                "use_workflow_target_group": false
              }
            },
            "object_type": "definition_activity"
          },
          {
            "unique_name": "definition_activity_027R3FTQB57173VAHLlB4NBkD7gUnNm06I0",
            "name": "Sleep",
            "title": "Sleep 10 Seconds",
            "type": "core.sleep",
            "base_type": "activity",
            "properties": {
              "continue_on_failure": true,
              "display_name": "Sleep 10 Seconds",
              "skip_execution": false,
              "sleep_interval": 10
            },
            "object_type": "definition_activity"
          },
          {
            "unique_name": "definition_activity_027R3FTQX6Q4W0G8tn46rr1nwPgsmpUJbXj",
            "name": "HTTP Request",
            "title": "GET  Workflow to verify Status",
            "type": "web-service.http_request",
            "base_type": "activity",
            "properties": {
              "action_timeout": 180,
              "allow_auto_redirect": true,
              "continue_on_error_status_code": false,
              "continue_on_failure": true,
              "custom_headers": [
                {
                  "name": "$workflow.definition_workflow_027R3FSZDJ9C15FI9XsQ3TY2mbg0KUk3eJa.local.variable_workflow_027R3FSZQBLMM6ZbMnKj9pLbFZbUKq0ZwNY$",
                  "value": "$workflow.definition_workflow_027R3FSZDJ9C15FI9XsQ3TY2mbg0KUk3eJa.input.variable_workflow_027R3FSZQAYY60a4mP6rSXFyvnmZobFsXeb$"
                }
              ],
              "display_name": "GET  Workflow to verify Status",
              "method": "GET",
              "relative_url": "be-console/api/v1/workflows/$activity.definition_activity_027R3FT9NOE3A3CoqiS3y4tjfqd9t5MpmQB.output.jsonpath_queries.Workflow ID$",
              "runtime_user": {
                "override_target_runtime_user": false,
                "target_default": true
              },
              "skip_execution": false,
              "target": {
                "override_workflow_target": false,
                "override_workflow_target_group_criteria": false,
                "use_workflow_target": true,
                "use_workflow_target_group": false
              }
            },
            "object_type": "definition_activity"
          },
          {
            "unique_name": "definition_activity_027R3FTRTSB2T4R2xBGMwyTWIAMVS012LTy",
            "name": "JSONPath Query",
            "title": "Extract Exported Status",
            "type": "corejava.jsonpathquery",
            "base_type": "activity",
            "properties": {
              "action_timeout": 180,
              "continue_on_failure": true,
              "display_name": "Extract Exported Status",
              "input_json": "$activity.definition_activity_027R3FTQX6Q4W0G8tn46rr1nwPgsmpUJbXj.output.response_body$",
              "jsonpath_queries": [
                {
                  "jsonpath_query": "$.status.state",
                  "jsonpath_query_name": "Exported Status",
                  "jsonpath_query_type": "string"
                },
                {
                  "jsonpath_query": "$..commited_on",
                  "jsonpath_query_name": "Commitde on time",
                  "jsonpath_query_type": "string"
                },
                {
                  "jsonpath_query": "$..commited_by",
                  "jsonpath_query_name": "Commited By",
                  "jsonpath_query_type": "string"
                },
                {
                  "jsonpath_query": "$..commit_message",
                  "jsonpath_query_name": "Commited Message",
                  "jsonpath_query_type": "string"
                },
                {
                  "jsonpath_query": "$..file_name",
                  "jsonpath_query_name": "File Name",
                  "jsonpath_query_type": "string"
                },
                {
                  "jsonpath_query": "$..commit_hash",
                  "jsonpath_query_name": "Commit Hash",
                  "jsonpath_query_type": "string"
                },
                {
                  "jsonpath_query": "$.name",
                  "jsonpath_query_name": "Workflow Name",
                  "jsonpath_query_type": "string"
                }
              ],
              "skip_execution": false
            },
            "object_type": "definition_activity"
          }
        ]
      },
      {
        "unique_name": "definition_activity_027R3FTSNVT855NWFFUV6lB66mw4NszClsO",
        "name": "Group",
        "title": "Delete Instance, WF,  GIT Key and Target",
        "type": "logic.group",
        "base_type": "activity",
        "properties": {
          "continue_on_failure": true,
          "display_name": "Delete Instance, WF,  GIT Key and Target",
          "skip_execution": false
        },
        "object_type": "definition_activity",
        "actions": [
          {
            "unique_name": "definition_activity_027R3FTTSGHI32Hb6OcIoFwX0j59b4tQobb",
            "name": "HTTP Request",
            "title": "Remove Git from worklfow [PUT]",
            "type": "web-service.http_request",
            "base_type": "activity",
            "properties": {
              "action_timeout": 180,
              "allow_auto_redirect": true,
              "body": "{\n  \"id\": \"$activity.definition_activity_027R3FT9NOE3A3CoqiS3y4tjfqd9t5MpmQB.output.jsonpath_queries.Workflow ID$\",\n  \"type\": \"generic.workflow\",\n  \"base_type\": \"workflow\",\n  \"name\": \"$activity.definition_activity_027R3FTRTSB2T4R2xBGMwyTWIAMVS012LTy.output.jsonpath_queries.Workflow Name$\",\n  \"title\": \"$activity.definition_activity_027R3FTRTSB2T4R2xBGMwyTWIAMVS012LTy.output.jsonpath_queries.Workflow Name$\",\n  \"valid\": true,\n  \"properties\": {\n    \"atomic\": {\n      \"is_atomic\": false\n    },\n    \"delete_workflow_instance\": false,\n    \"runtime_user\": {\n      \"override_target_runtime_user\": false,\n      \"specify_on_workflow_start\": false,\n      \"target_default\": true\n    },\n    \"target\": {\n      \"no_target\": true\n    },\n    \"display_name\": \"$activity.definition_activity_027R3FTRTSB2T4R2xBGMwyTWIAMVS012LTy.output.jsonpath_queries.Workflow Name$\"\n  },\n  \"categories\": [],\n  \"variables\": [\n  ],\n  \"metadata\": {\n    \"git_info\": {\n      \"target_id\": \"\",\n      \"commit_hash\": \"\",\n      \"commited_by\": \"38\",\n      \"commited_on\": \"$activity.definition_activity_027R3FTRTSB2T4R2xBGMwyTWIAMVS012LTy.output.jsonpath_queries.Commitde on time$\",\n      \"commit_message\": \"$activity.definition_activity_027R3FTRTSB2T4R2xBGMwyTWIAMVS012LTy.output.jsonpath_queries.Commited Message$\",\n      \"file_name\": \"$activity.definition_activity_027R3FTRTSB2T4R2xBGMwyTWIAMVS012LTy.output.jsonpath_queries.File Name$\"\n    }\n  }\n}",
              "continue_on_error_status_code": false,
              "continue_on_failure": true,
              "custom_headers": [
                {
                  "name": "$workflow.definition_workflow_027R3FSZDJ9C15FI9XsQ3TY2mbg0KUk3eJa.local.variable_workflow_027R3FSZQBLMM6ZbMnKj9pLbFZbUKq0ZwNY$",
                  "value": "$workflow.definition_workflow_027R3FSZDJ9C15FI9XsQ3TY2mbg0KUk3eJa.input.variable_workflow_027R3FSZQAYY60a4mP6rSXFyvnmZobFsXeb$"
                }
              ],
              "display_name": "Remove Git from worklfow [PUT]",
              "method": "PUT",
              "relative_url": "be-console/api/v1/workflows/$activity.definition_activity_027R3FT9NOE3A3CoqiS3y4tjfqd9t5MpmQB.output.jsonpath_queries.Workflow ID$",
              "runtime_user": {
                "override_target_runtime_user": false,
                "target_default": true
              },
              "skip_execution": false,
              "target": {
                "override_workflow_target": false,
                "override_workflow_target_group_criteria": false,
                "use_workflow_target": true,
                "use_workflow_target_group": false
              }
            },
            "object_type": "definition_activity"
          },
          {
            "unique_name": "definition_activity_027R3FTV7NQG03s7REnXmwNMw7Xf5QlpqYp",
            "name": "HTTP Request",
            "title": "Delete GIT Target",
            "type": "web-service.http_request",
            "base_type": "activity",
            "properties": {
              "action_timeout": 180,
              "allow_auto_redirect": true,
              "continue_on_error_status_code": false,
              "continue_on_failure": true,
              "custom_headers": [
                {
                  "name": "$workflow.definition_workflow_027R3FSZDJ9C15FI9XsQ3TY2mbg0KUk3eJa.local.variable_workflow_027R3FSZQBLMM6ZbMnKj9pLbFZbUKq0ZwNY$",
                  "value": "$workflow.definition_workflow_027R3FSZDJ9C15FI9XsQ3TY2mbg0KUk3eJa.input.variable_workflow_027R3FSZQAYY60a4mP6rSXFyvnmZobFsXeb$"
                }
              ],
              "display_name": "Delete GIT Target",
              "method": "DELETE",
              "relative_url": "be-console/api/v1/targets/$activity.definition_activity_027R3FT6ACULV0KY03Vt37XQExZ5RZiz0yO.output.jsonpath_queries.GIT Target ID$",
              "runtime_user": {
                "override_target_runtime_user": false,
                "target_default": true
              },
              "skip_execution": false,
              "target": {
                "override_workflow_target": false,
                "override_workflow_target_group_criteria": false,
                "use_workflow_target": true,
                "use_workflow_target_group": false
              }
            },
            "object_type": "definition_activity"
          },
          {
            "unique_name": "definition_activity_027R3FTW5CP3F0ptsUvuKPiVxXZf7JEKeHf",
            "name": "HTTP Request",
            "title": "Delete GIT Key",
            "type": "web-service.http_request",
            "base_type": "activity",
            "properties": {
              "action_timeout": 180,
              "allow_auto_redirect": true,
              "continue_on_error_status_code": false,
              "continue_on_failure": true,
              "custom_headers": [
                {
                  "name": "$workflow.definition_workflow_027R3FSZDJ9C15FI9XsQ3TY2mbg0KUk3eJa.local.variable_workflow_027R3FSZQBLMM6ZbMnKj9pLbFZbUKq0ZwNY$",
                  "value": "$workflow.definition_workflow_027R3FSZDJ9C15FI9XsQ3TY2mbg0KUk3eJa.input.variable_workflow_027R3FSZQAYY60a4mP6rSXFyvnmZobFsXeb$"
                }
              ],
              "display_name": "Delete GIT Key",
              "method": "DELETE",
              "relative_url": "be-console/api/v1/runtime_users/$activity.definition_activity_027R3FT4GX8SI4aKVTOMhG0Xmb2e92Dqb8F.output.jsonpath_queries.GIT Accountkey ID$",
              "runtime_user": {
                "override_target_runtime_user": false,
                "target_default": true
              },
              "skip_execution": false,
              "target": {
                "override_workflow_target": false,
                "override_workflow_target_group_criteria": false,
                "use_workflow_target": true,
                "use_workflow_target_group": false
              }
            },
            "object_type": "definition_activity"
          },
          {
            "unique_name": "definition_activity_027R3FTX2OOBH5J3KCikyOdFXwDrToKyeqz",
            "name": "HTTP Request",
            "title": "Delete Workflow Instance",
            "type": "web-service.http_request",
            "base_type": "activity",
            "properties": {
              "action_timeout": 180,
              "allow_auto_redirect": true,
              "continue_on_error_status_code": false,
              "continue_on_failure": true,
              "custom_headers": [
                {
                  "name": "$workflow.definition_workflow_027R3FSZDJ9C15FI9XsQ3TY2mbg0KUk3eJa.local.variable_workflow_027R3FSZQBLMM6ZbMnKj9pLbFZbUKq0ZwNY$",
                  "value": "$workflow.definition_workflow_027R3FSZDJ9C15FI9XsQ3TY2mbg0KUk3eJa.input.variable_workflow_027R3FSZQAYY60a4mP6rSXFyvnmZobFsXeb$"
                }
              ],
              "display_name": "Delete Workflow Instance",
              "method": "DELETE",
              "relative_url": "be-console/api/v1/instances/$activity.definition_activity_027R3FTEKYDK47ipgKV5AdOlMczikg4gwbw.output.jsonpath_queries.Instance ID$",
              "runtime_user": {
                "override_target_runtime_user": false,
                "target_default": true
              },
              "skip_execution": false,
              "target": {
                "override_workflow_target": false,
                "override_workflow_target_group_criteria": false,
                "use_workflow_target": true,
                "use_workflow_target_group": false
              }
            },
            "object_type": "definition_activity"
          },
          {
            "unique_name": "definition_activity_027R3FTXVUKU20OOZhWU3u87ZQ3KLuT74JE",
            "name": "Sleep",
            "title": "Sleep 10",
            "type": "core.sleep",
            "base_type": "activity",
            "properties": {
              "continue_on_failure": true,
              "display_name": "Sleep 10",
              "skip_execution": false,
              "sleep_interval": 10
            },
            "object_type": "definition_activity"
          },
          {
            "unique_name": "definition_activity_027R3FTYIXGTF1ffsXxvPOFDRkC73XAKlkm",
            "name": "HTTP Request",
            "title": "Delete Workflow",
            "type": "web-service.http_request",
            "base_type": "activity",
            "properties": {
              "action_timeout": 180,
              "allow_auto_redirect": true,
              "continue_on_error_status_code": false,
              "continue_on_failure": true,
              "custom_headers": [
                {
                  "name": "$workflow.definition_workflow_027R3FSZDJ9C15FI9XsQ3TY2mbg0KUk3eJa.local.variable_workflow_027R3FSZQBLMM6ZbMnKj9pLbFZbUKq0ZwNY$",
                  "value": "$workflow.definition_workflow_027R3FSZDJ9C15FI9XsQ3TY2mbg0KUk3eJa.input.variable_workflow_027R3FSZQAYY60a4mP6rSXFyvnmZobFsXeb$"
                }
              ],
              "display_name": "Delete Workflow",
              "method": "DELETE",
              "relative_url": "be-console/api/v1/workflows/$activity.definition_activity_027R3FT9NOE3A3CoqiS3y4tjfqd9t5MpmQB.output.jsonpath_queries.Workflow ID$",
              "runtime_user": {
                "override_target_runtime_user": false,
                "target_default": true
              },
              "skip_execution": false,
              "target": {
                "override_workflow_target": false,
                "override_workflow_target_group_criteria": false,
                "use_workflow_target": true,
                "use_workflow_target_group": false
              }
            },
            "object_type": "definition_activity"
          },
          {
            "unique_name": "definition_activity_027R3FTZEVZIK4cW0qia6b95dt0Up8fqxG1",
            "name": "Condition Block",
            "title": "All Actions Pass/Fail",
            "type": "logic.if_else",
            "base_type": "activity",
            "properties": {
              "continue_on_failure": true,
              "display_name": "All Actions Pass/Fail",
              "skip_execution": false
            },
            "object_type": "definition_activity",
            "blocks": [
              {
                "unique_name": "definition_activity_027R3FU0HHX2A1I5clh1ZBlCv3bHHYJug6W",
                "name": "Condition Branch",
                "title": "true == 200",
                "type": "logic.condition_block",
                "base_type": "activity",
                "properties": {
                  "condition": {
                    "left_operand": {
                      "left_operand": {
                        "left_operand": {
                          "left_operand": {
                            "left_operand": {
                              "left_operand": {
                                "left_operand": "$activity.definition_activity_027R3FTRTSB2T4R2xBGMwyTWIAMVS012LTy.output.jsonpath_queries.Exported Status$",
                                "operator": "eq",
                                "right_operand": "export_completed"
                              },
                              "operator": "and",
                              "right_operand": {
                                "left_operand": "$activity.definition_activity_027R3FTTSGHI32Hb6OcIoFwX0j59b4tQobb.output.status_code$",
                                "operator": "eq",
                                "right_operand": 200
                              }
                            },
                            "operator": "and",
                            "right_operand": {
                              "left_operand": "$activity.definition_activity_027R3FTV7NQG03s7REnXmwNMw7Xf5QlpqYp.output.status_code$",
                              "operator": "eq",
                              "right_operand": 204
                            }
                          },
                          "operator": "and",
                          "right_operand": {
                            "left_operand": "$activity.definition_activity_027R3FTW5CP3F0ptsUvuKPiVxXZf7JEKeHf.output.status_code$",
                            "operator": "eq",
                            "right_operand": 204
                          }
                        },
                        "operator": "and",
                        "right_operand": {
                          "left_operand": "$activity.definition_activity_027R3FTX2OOBH5J3KCikyOdFXwDrToKyeqz.output.status_code$",
                          "operator": "eq",
                          "right_operand": 202
                        }
                      },
                      "operator": "and",
                      "right_operand": {
                        "left_operand": "$activity.definition_activity_027R3FTYIXGTF1ffsXxvPOFDRkC73XAKlkm.output.status_code$",
                        "operator": "eq",
                        "right_operand": 204
                      }
                    },
                    "operator": "and",
                    "right_operand": {
                      "left_operand": "$workflow.definition_workflow_027R3FSZDJ9C15FI9XsQ3TY2mbg0KUk3eJa.output.variable_workflow_027R3FSZQB6AS4XBYVztsyy1G03wSV5jOop$",
                      "operator": "eq",
                      "right_operand": "true"
                    }
                  },
                  "continue_on_failure": true,
                  "display_name": "true == 200",
                  "skip_execution": false
                },
                "object_type": "definition_activity",
                "actions": [
                  {
                    "unique_name": "definition_activity_027R3FU292FXW0FB863z9EJlSBXwJupq1Lc",
                    "name": "Set Variables",
                    "title": "All Action Should Pass",
                    "type": "core.set_multiple_variables",
                    "base_type": "activity",
                    "properties": {
                      "continue_on_failure": true,
                      "display_name": "All Action Should Pass",
                      "skip_execution": false,
                      "variables_to_update": [
                        {
                          "variable_to_update": "$workflow.definition_workflow_027R3FSZDJ9C15FI9XsQ3TY2mbg0KUk3eJa.output.variable_workflow_027R3FSZQBDWP2xE1juKr56EIok7IkkhNBf$",
                          "variable_value_new": "✔✅All Import/Export to BitBucket Actions Passed"
                        }
                      ]
                    },
                    "object_type": "definition_activity"
                  }
                ]
              },
              {
                "unique_name": "definition_activity_027R3FU3GASV80psxAHfgrRgFTk91QIx1wV",
                "name": "Condition Branch",
                "title": "false !== 200",
                "type": "logic.condition_block",
                "base_type": "activity",
                "properties": {
                  "condition": {
                    "left_operand": {
                      "left_operand": {
                        "left_operand": {
                          "left_operand": {
                            "left_operand": {
                              "left_operand": {
                                "left_operand": "$activity.definition_activity_027R3FTRTSB2T4R2xBGMwyTWIAMVS012LTy.output.jsonpath_queries.Exported Status$",
                                "operator": "ne",
                                "right_operand": "export_failed"
                              },
                              "operator": "or",
                              "right_operand": {
                                "left_operand": "$activity.definition_activity_027R3FTTSGHI32Hb6OcIoFwX0j59b4tQobb.output.status_code$",
                                "operator": "ne",
                                "right_operand": 200
                              }
                            },
                            "operator": "or",
                            "right_operand": {
                              "left_operand": "$activity.definition_activity_027R3FTV7NQG03s7REnXmwNMw7Xf5QlpqYp.output.status_code$",
                              "operator": "ne",
                              "right_operand": 204
                            }
                          },
                          "operator": "or",
                          "right_operand": {
                            "left_operand": "$activity.definition_activity_027R3FTW5CP3F0ptsUvuKPiVxXZf7JEKeHf.output.status_code$",
                            "operator": "ne",
                            "right_operand": 202
                          }
                        },
                        "operator": "or",
                        "right_operand": {
                          "left_operand": "$activity.definition_activity_027R3FTX2OOBH5J3KCikyOdFXwDrToKyeqz.output.status_code$",
                          "operator": "ne",
                          "right_operand": 202
                        }
                      },
                      "operator": "or",
                      "right_operand": {
                        "left_operand": "$activity.definition_activity_027R3FTYIXGTF1ffsXxvPOFDRkC73XAKlkm.output.status_code$",
                        "operator": "ne",
                        "right_operand": 204
                      }
                    },
                    "operator": "or",
                    "right_operand": {
                      "left_operand": "$workflow.definition_workflow_027R3FSZDJ9C15FI9XsQ3TY2mbg0KUk3eJa.output.variable_workflow_027R3FSZQB6AS4XBYVztsyy1G03wSV5jOop$",
                      "operator": "eq",
                      "right_operand": "false"
                    }
                  },
                  "continue_on_failure": true,
                  "display_name": "false !== 200",
                  "skip_execution": false
                },
                "object_type": "definition_activity",
                "actions": [
                  {
                    "unique_name": "definition_activity_027R3FU5D78TL56cua0ud3U853RReqJYziq",
                    "name": "Set Variables",
                    "title": "If Any action Fails",
                    "type": "core.set_multiple_variables",
                    "base_type": "activity",
                    "properties": {
                      "continue_on_failure": true,
                      "display_name": "If Any action Fails",
                      "skip_execution": false,
                      "variables_to_update": [
                        {
                          "variable_to_update": "$workflow.definition_workflow_027R3FSZDJ9C15FI9XsQ3TY2mbg0KUk3eJa.output.variable_workflow_027R3FSZQBDWP2xE1juKr56EIok7IkkhNBf$",
                          "variable_value_new": "❌⭕Some Import/Export BitBucket actions failed Please check The instance : $workflow.definition_workflow_027R3FSZDJ9C15FI9XsQ3TY2mbg0KUk3eJa.output.instance_id$"
                        }
                      ]
                    },
                    "object_type": "definition_activity"
                  }
                ]
              }
            ]
          }
        ]
      },
      {
        "unique_name": "definition_activity_027R3FUDTQPXT6idx3zEg3I62oGZC72LQtO",
        "name": "Set Variables",
        "title": "Email Tempalate",
        "type": "core.set_multiple_variables",
        "base_type": "activity",
        "properties": {
          "continue_on_failure": true,
          "display_name": "Email Tempalate",
          "skip_execution": false,
          "variables_to_update": [
            {
              "variable_to_update": "$workflow.definition_workflow_027R3FSZDJ9C15FI9XsQ3TY2mbg0KUk3eJa.output.variable_workflow_027R3FSZQAPA86sTJtghKqOEWPFJmGcjn1u$",
              "variable_value_new": "\u003ch2\u003eImport/Eport Using BitBucket\u003c/h2\u003e\n\u003ctable\u003e\n\u003ctr\u003e\n\u003cth\u003eActivity Name\u003c/th\u003e\n\u003cth\u003eTrue/False\u003c/th\u003e\n\u003cth\u003eError Code\u003c/th\u003e\n\u003cth\u003eError Message\u003c/th\u003e\n\u003c/tr\u003e\n\u003ctr\u003e\n\u003ctd\u003eCreate Accrountkeys with BitBucket Creds\u003c/td\u003e\n\u003ctd\u003e$activity.definition_activity_027R3FT4GX8SI4aKVTOMhG0Xmb2e92Dqb8F.output.jsonpath_queries.Accountkey Status$\u003c/td\u003e\n\u003ctd\u003e$activity.definition_activity_027R3FT3U5F8Y4ejdMDGUbRQhgfuc0aM7Sn.output.error.code$\u003c/td\u003e\n\u003ctd\u003e$activity.definition_activity_027R3FT3U5F8Y4ejdMDGUbRQhgfuc0aM7Sn.output.error.message$\u003c/td\u003e\n\u003c/tr\u003e\n\u003ctr\u003e\n\u003ctd\u003eCreate Target with BitBucket Creds\u003c/td\u003e\n\u003ctd\u003e$activity.definition_activity_027R3FT6ACULV0KY03Vt37XQExZ5RZiz0yO.output.jsonpath_queries.Git Target Status$\u003c/td\u003e\n\u003ctd\u003e$activity.definition_activity_027R3FT5E0Z5B6v0DDYreEOY312pB0kFoXt.output.error.code$\u003c/td\u003e\n\u003ctd\u003e$activity.definition_activity_027R3FT5E0Z5B6v0DDYreEOY312pB0kFoXt.output.error.message$\u003c/td\u003e\n\u003c/tr\u003e\n\u003ctr\u003e\n\u003ctd\u003eImport worklfow\u003c/td\u003e\n\u003ctd\u003e$activity.definition_activity_027R3FT888FER2lcQ72pUZo4Lp8VuEtiKVb.output.succeeded$\u003c/td\u003e\n\u003ctd\u003e$activity.definition_activity_027R3FT888FER2lcQ72pUZo4Lp8VuEtiKVb.output.error.code$\u003c/td\u003e\n\u003ctd\u003e$activity.definition_activity_027R3FT888FER2lcQ72pUZo4Lp8VuEtiKVb.output.error.message$\u003c/td\u003e\n\u003c/tr\u003e\n\u003ctr\u003e\n\u003ctd\u003eImport WorkflowStatus \u003c/td\u003e\n\u003ctd\u003e$activity.definition_activity_027R3FTBHPGQ92eOD82kZ165EO5IQPczpZh.output.jsonpath_queries.Imported Status$\u003c/td\u003e\n\u003ctd\u003e$activity.definition_activity_027R3FT888FER2lcQ72pUZo4Lp8VuEtiKVb.output.error.code$\u003c/td\u003e\n\u003ctd\u003e$activity.definition_activity_027R3FT888FER2lcQ72pUZo4Lp8VuEtiKVb.output.error.message$\u003c/td\u003e\n\u003c/tr\u003e\n\u003ctr\u003e\n\u003ctd\u003eExecute Workflow\u003c/td\u003e\n\u003ctd\u003e$activity.definition_activity_027R3FTDDM89941g3YTIZGSFasSEDCVweev.output.succeeded$\u003c/td\u003e\n\u003ctd\u003e$activity.definition_activity_027R3FTDDM89941g3YTIZGSFasSEDCVweev.output.error.code$\u003c/td\u003e\n\u003ctd\u003e$activity.definition_activity_027R3FTDDM89941g3YTIZGSFasSEDCVweev.output.error.message$\u003c/td\u003e\n\u003c/tr\u003e\n\u003ctr\u003e\n\u003ctd\u003eWF Instance Run status\u003c/td\u003e\n\u003ctd\u003e$activity.definition_activity_027R3FTGYN33R08djstO5LTQnluW5qjGHwT.output.jsonpath_queries.Workflow Instance Status$\u003c/td\u003e\n\u003ctd\u003e\u003c/td\u003e\n\u003ctd\u003e\u003c/td\u003e\n\u003c/tr\u003e\n\u003ctr\u003e\n\u003ctd\u003eExport Workflow \u003c/td\u003e\n\u003ctd\u003e$activity.definition_activity_027R3FTPDR8N636c0wsv3hcBJLvRsw0KQt2.output.succeeded$\u003c/td\u003e\n\u003ctd\u003e$activity.definition_activity_027R3FTPDR8N636c0wsv3hcBJLvRsw0KQt2.output.error.code$\u003c/td\u003e\n\u003ctd\u003e$activity.definition_activity_027R3FTPDR8N636c0wsv3hcBJLvRsw0KQt2.output.error.message$\u003c/td\u003e\n\u003c/tr\u003e\n\u003ctr\u003e\n\u003ctd\u003eExported Workflow status\u003c/td\u003e\n\u003ctd\u003e$activity.definition_activity_027R3FTRTSB2T4R2xBGMwyTWIAMVS012LTy.output.jsonpath_queries.Exported Status$\u003c/td\u003e\n\u003ctd\u003e$activity.definition_activity_027R3FTQX6Q4W0G8tn46rr1nwPgsmpUJbXj.output.error.code$\u003c/td\u003e\n\u003ctd\u003e$activity.definition_activity_027R3FTQX6Q4W0G8tn46rr1nwPgsmpUJbXj.output.error.message$\u003c/td\u003e\n\u003c/tr\u003e\n\u003ctr\u003e\n\u003ctd\u003eDetach BB Target from Workflow\u003c/td\u003e\n\u003ctd\u003e$activity.definition_activity_027R3FTTSGHI32Hb6OcIoFwX0j59b4tQobb.output.succeeded$\u003c/td\u003e\n\u003ctd\u003e$activity.definition_activity_027R3FTTSGHI32Hb6OcIoFwX0j59b4tQobb.output.error.code$\u003c/td\u003e\n\u003ctd\u003e$activity.definition_activity_027R3FTTSGHI32Hb6OcIoFwX0j59b4tQobb.output.error.message$\u003c/td\u003e\n\u003c/tr\u003e\n\u003ctr\u003e\n\u003ctd\u003eDelete BitBucket Target \u003c/td\u003e\n\u003ctd\u003e$activity.definition_activity_027R3FTV7NQG03s7REnXmwNMw7Xf5QlpqYp.output.succeeded$\u003c/td\u003e\n\u003ctd\u003e$activity.definition_activity_027R3FTV7NQG03s7REnXmwNMw7Xf5QlpqYp.output.error.code$\u003c/td\u003e\n\u003ctd\u003e$activity.definition_activity_027R3FTV7NQG03s7REnXmwNMw7Xf5QlpqYp.output.error.message$\u003c/td\u003e\n\u003c/tr\u003e\n\u003ctr\u003e\n\u003ctd\u003eDelete BitBucket Key\u003c/td\u003e\n\u003ctd\u003e$activity.definition_activity_027R3FTW5CP3F0ptsUvuKPiVxXZf7JEKeHf.output.succeeded$\u003c/td\u003e\n\u003ctd\u003e$activity.definition_activity_027R3FTW5CP3F0ptsUvuKPiVxXZf7JEKeHf.output.error.code$\u003c/td\u003e\n\u003ctd\u003e$activity.definition_activity_027R3FTW5CP3F0ptsUvuKPiVxXZf7JEKeHf.output.error.message$\u003c/td\u003e\n\u003c/tr\u003e\n\u003ctr\u003e\n\u003ctd\u003eDelete WF Instance\u003c/td\u003e\n\u003ctd\u003e$activity.definition_activity_027R3FTX2OOBH5J3KCikyOdFXwDrToKyeqz.output.succeeded$\u003c/td\u003e\n\u003ctd\u003e$activity.definition_activity_027R3FTX2OOBH5J3KCikyOdFXwDrToKyeqz.output.error.code$\u003c/td\u003e\n\u003ctd\u003e$activity.definition_activity_027R3FTX2OOBH5J3KCikyOdFXwDrToKyeqz.output.error.message$\u003c/td\u003e\n\u003c/tr\u003e\n\u003ctr\u003e\n\u003ctd\u003eDelete Workflow\u003c/td\u003e\n\u003ctd\u003e$activity.definition_activity_027R3FTYIXGTF1ffsXxvPOFDRkC73XAKlkm.output.succeeded$\u003c/td\u003e\n\u003ctd\u003e$activity.definition_activity_027R3FTYIXGTF1ffsXxvPOFDRkC73XAKlkm.output.error.code$\u003c/td\u003e\n\u003ctd\u003e$activity.definition_activity_027R3FTYIXGTF1ffsXxvPOFDRkC73XAKlkm.output.error.message$\u003c/td\u003e\n\u003c/tr\u003e\n\u003c/table\u003e"
            }
          ]
        },
        "object_type": "definition_activity"
      }
    ],
    "categories": [
      "category_01GUFX9FVCE283ZPiHKK9kqAufyYonIV94A"
    ]
  },
  "categories": {
    "category_01GUFX9FVCE283ZPiHKK9kqAufyYonIV94A": {
      "unique_name": "category_01GUFX9FVCE283ZPiHKK9kqAufyYonIV94A",
      "name": "CA Web Services",
      "title": "CA Web Services",
      "type": "basic.category",
      "base_type": "category",
      "category_type": "custom",
      "object_type": "category"
    }
  }
}