{
  "workflow": {
    "unique_name": "definition_workflow_01XNV3A123WXS4nLZgxxksW7ik6sybcLzrr",
    "name": "ha test exp bitbucket 6/8",
    "title": "ha test exp bitbucket 6/8",
    "type": "generic.workflow",
    "base_type": "workflow",
    "variables": null,
    "properties": {
      "atomic": {
        "is_atomic": false
      },
      "delete_workflow_instance": false,
      "display_name": "ha test exp bitbucket 6/8",
      "runtime_user": {
        "target_default": true
      },
      "target": {
        "no_target": true
      }
    },
    "object_type": "definition_workflow",
    "actions": [
      {
        "unique_name": "definition_activity_01XNV3CJTWEIK6r48U5eu19OhwADadvb3UA",
        "name": "To Lower",
        "title": "To Lower",
        "type": "core.string2lower",
        "base_type": "activity",
        "properties": {
          "continue_on_failure": false,
          "display_name": "To Lower",
          "skip_execution": false,
          "source": "HAREESH"
        },
        "object_type": "definition_activity"
      },
      {
        "unique_name": "definition_activity_01XNV3J5XR2SR4StLutrBZNSSHeW7c9PiHn",
        "name": "To Upper",
        "title": "To Upper",
        "type": "core.string2upper",
        "base_type": "activity",
        "properties": {
          "continue_on_failure": false,
          "display_name": "To Upper",
          "skip_execution": false,
          "source": "hareesh"
        },
        "object_type": "definition_activity"
      },
      {
        "unique_name": "definition_activity_01XNV3OY7J07P2U0CWL2iQXUeLRMcYs2vn2",
        "name": "Sleep",
        "title": "Sleep",
        "type": "core.sleep",
        "base_type": "activity",
        "properties": {
          "continue_on_failure": false,
          "display_name": "Sleep",
          "skip_execution": false,
          "sleep_interval": 1
        },
        "object_type": "definition_activity"
      },
      {
        "unique_name": "definition_activity_01XNV3RVJXG4I2qdkd9rBjOIOjD9uj3s7Dg",
        "name": "Completed",
        "title": "Completed",
        "type": "logic.completed",
        "base_type": "activity",
        "properties": {
          "completion_type": "succeeded",
          "continue_on_failure": false,
          "display_name": "Completed",
          "result_message": "success",
          "skip_execution": false
        },
        "object_type": "definition_activity"
      }
    ],
    "categories": [
      "category_1BMfMXSnJMyt5Ihqi7rWJr5N8cf"
    ]
  }
}