{
  "workflow": {
    "unique_name": "definition_workflow_022ZAHY41V4O72a0q5nlkO0uKqX765QSysb",
    "name": "SG-WF-withModuleTargets-NonModuleTargets",
    "title": "SG-WF-withModuleTargets-NonModuleTargets",
    "type": "generic.workflow",
    "base_type": "workflow",
    "variables": [
      {
        "schema_id": "datatype.secure_string",
        "properties": {
          "value": "*****",
          "scope": "input",
          "name": "Meraki apikey",
          "type": "datatype.secure_string",
          "is_required": true,
          "is_invisible": false
        },
        "unique_name": "variable_workflow_022ZAQ9K71OB16wt4K1vCftQJ8Tkp7XCP1S",
        "object_type": "variable_workflow"
      }
    ],
    "properties": {
      "atomic": {
        "is_atomic": false
      },
      "delete_workflow_instance": false,
      "display_name": "SG-WF-withModuleTargets-NonModuleTargets",
      "runtime_user": {
        "target_default": true
      },
      "target": {
        "target_type": "web-service.endpoint",
        "target_id": "definition_target_01ZYQ8ZD88DV003Ka9HUAWsycl0CLaUyQdL",
        "execute_on_workflow_target": true
      }
    },
    "object_type": "definition_workflow",
    "actions": [
      {
        "unique_name": "definition_activity_022ZAIK3P38ST22HszEtWoGvW0q98p0NORA",
        "name": "HTTP Request",
        "title": "HTTP Request",
        "type": "web-service.http_request",
        "base_type": "activity",
        "properties": {
          "action_timeout": 180,
          "allow_auto_redirect": true,
          "allow_headers_redirect": false,
          "continue_on_error_status_code": false,
          "continue_on_failure": false,
          "display_name": "HTTP Request",
          "method": "GET",
          "relative_url": "/get",
          "runtime_user": {
            "target_default": true
          },
          "skip_execution": false,
          "target": {
            "use_workflow_target": true
          }
        },
        "object_type": "definition_activity"
      },
      {
        "unique_name": "definition_activity_022ZAW0HS8FM71t72skPO1IA6KaiBE8aolz",
        "name": "Meraki - Get Organizations",
        "title": "Meraki - Get Organizations",
        "type": "workflow.atomic_workflow",
        "base_type": "subworkflow",
        "properties": {
          "continue_on_failure": false,
          "display_name": "Meraki - Get Organizations",
          "input": {
            "variable_workflow_01PP75VKCNBIR74HoD8U7ycWq28NINXEGi5": "$workflow.definition_workflow_022ZAHY41V4O72a0q5nlkO0uKqX765QSysb.input.variable_workflow_022ZAQ9K71OB16wt4K1vCftQJ8Tkp7XCP1S$"
          },
          "runtime_user": {
            "target_default": true
          },
          "skip_execution": false,
          "target": {
            "override_workflow_target": true,
            "target_id": "$module_target;Meraki;securex:ao:meraki$",
            "target_type": "web-service.endpoint"
          },
          "workflow_id": "definition_workflow_01PP75VKKHI0M7L1KhzORCEGNLR0y54Vaz8",
          "workflow_name": "Meraki - Get Organizations"
        },
        "object_type": "definition_activity"
      },
      {
        "unique_name": "definition_activity_022ZC6XMUM40P3FI4KGItDYhTZtAiHdp6w1",
        "name": "HTTP Request",
        "title": "HTTP Request with account key",
        "type": "web-service.http_request",
        "base_type": "activity",
        "properties": {
          "action_timeout": 180,
          "allow_auto_redirect": true,
          "allow_headers_redirect": false,
          "continue_on_error_status_code": false,
          "continue_on_failure": false,
          "display_name": "HTTP Request with account key",
          "method": "GET",
          "relative_url": "/basic-auth/foo/bin",
          "runtime_user": {
            "target_default": true
          },
          "skip_execution": false,
          "target": {
            "override_workflow_target": true,
            "target_id": "definition_target_022ZGQ9GE0M314gPuS4MpxD7N3NIU3aND0L"
          }
        },
        "object_type": "definition_activity"
      },
      {
        "unique_name": "definition_activity_022ZH0BY911DZ4JH6RAHMmThXWRpOiiFutg",
        "name": "To Upper",
        "title": "To Upper",
        "type": "core.string2upper",
        "base_type": "activity",
        "properties": {
          "continue_on_failure": false,
          "display_name": "To Upper",
          "skip_execution": false,
          "source": "$activity.definition_activity_022ZC6XMUM40P3FI4KGItDYhTZtAiHdp6w1.output.response_body$"
        },
        "object_type": "definition_activity"
      }
    ],
    "categories": [
      "category_1BMfMXSnJMyt5Ihqi7rWJr5N8cf"
    ]
  },
  "targets": {
    "definition_target_01ZYQ8ZD88DV003Ka9HUAWsycl0CLaUyQdL": {
      "unique_name": "definition_target_01ZYQ8ZD88DV003Ka9HUAWsycl0CLaUyQdL",
      "name": "SG-Httpbin",
      "title": "SG-Httpbin",
      "type": "web-service.endpoint",
      "base_type": "target",
      "object_type": "definition_target",
      "properties": {
        "description": "Httpbin.org Target's description",
        "disable_certificate_validation": false,
        "display_name": "SG-Httpbin",
        "host": "httpbin.org",
        "ignore_proxy": true,
        "no_runtime_user": true,
        "protocol": "http"
      }
    },
    "definition_target_022ZGQ9GE0M314gPuS4MpxD7N3NIU3aND0L": {
      "unique_name": "definition_target_022ZGQ9GE0M314gPuS4MpxD7N3NIU3aND0L",
      "name": "SG-httpbin-Auth",
      "title": "SG-httpbin-Auth",
      "type": "web-service.endpoint",
      "base_type": "target",
      "object_type": "definition_target",
      "properties": {
        "default_runtime_user_id": "definition_runtime_user_020U54QCSB0DU5CQwowNYcbLbBh1VPZK9gj",
        "disable_certificate_validation": true,
        "display_name": "SG-httpbin-Auth",
        "host": "httpbin.org",
        "ignore_proxy": true,
        "no_runtime_user": false,
        "protocol": "https"
      }
    }
  },
  "runtime_users": {
    "definition_runtime_user_020U54QCSB0DU5CQwowNYcbLbBh1VPZK9gj": {
      "unique_name": "definition_runtime_user_020U54QCSB0DU5CQwowNYcbLbBh1VPZK9gj",
      "name": "httpbin.org/basic-auth/foo/bin",
      "title": "httpbin.org/basic-auth/foo/bin",
      "type": "runtime_user.web-service_basic_credentials",
      "base_type": "runtime_user",
      "object_type": "definition_runtime_user",
      "properties": {
        "auth_option": "Basic",
        "basic_password": "*****",
        "basic_username": "foo",
        "description": "http://httpbin.org/basic-auth/foo/bin",
        "display_name": "httpbin.org/basic-auth/foo/bin"
      }
    }
  },
  "atomic_workflows": [
    "definition_workflow_01PP75VKKHI0M7L1KhzORCEGNLR0y54Vaz8"
  ],
  "dependent_workflows": [
    "definition_workflow_01PP75VKKHI0M7L1KhzORCEGNLR0y54Vaz8"
  ],
  "module_targets": [
    {
      "module_type": "Meraki",
      "external_id": "securex:ao:meraki"
    }
  ]
}