{
  "workflow": {
    "unique_name": "definition_workflow_024MU40FZO4IH3c7UYDIb0XbgjsQQFjGRgO",
    "name": "Test workflow Git repo - Test_Sai",
    "title": "Test workflow Git repo - Test_Sai",
    "type": "generic.workflow",
    "base_type": "workflow",
    "variables": null,
    "properties": {
      "atomic": {
        "is_atomic": false
      },
      "delete_workflow_instance": false,
      "display_name": "Test workflow Git repo - Test_Sai",
      "runtime_user": {
        "target_default": true
      },
      "target": {
        "no_target": true
      }
    },
    "object_type": "definition_workflow",
    "actions": [
      {
        "unique_name": "definition_activity_024MU4EXP5WZY79N19qW4hqkx94PyhzAVjw",
        "name": "Sleep",
        "title": "Sleep",
        "type": "core.sleep",
        "base_type": "activity",
        "properties": {
          "continue_on_failure": false,
          "display_name": "Sleep",
          "skip_execution": false,
          "sleep_interval": 2
        },
        "object_type": "definition_activity"
      }
    ],
    "categories": [
      "category_1BMfMXSnJMyt5Ihqi7rWJr5N8cf"
    ]
  }
}